
Text conversion of header file \FR\10_50.000
 -------------------------------------------------------------

The instrument number was  6238/3
New ASD spectrum file: Program version = 8.11 file version = 4.03
Spectrum saved: 10/16/101 at 10:48:47
VNIR integration time : 17
VNIR channel 1 wavelength = 350 wavelength step = 1
There were 10 samples per data value
xmin = 380 xmax= 2400
ymin= 0 ymax= 1.1
The instrument digitizes spectral values to 16
SWIR1 gain was 165 offset was 2087
SWIR2 gain was 242 offset was 2149
Join between VNIR and SWIR1 was 975 nm
Join between SWIR1 and SWIR2 was 1797 nm
VNIR dark signal subtracted: 
25 dark measurements taken Tue Oct 16 07:47:26 2001
DCC value was 0
Data is compared to a white reference:
10 white reference measurements taken Tue Oct 16 07:47:34 2001
There was no foreoptic attached
Spectrum file is reflectance data
Wavelength,10_50.000
350, 1.27840684726834E-02 
351, 1.17886308580637E-02 
352, 1.13016357645392E-02 
353, 1.11291250213981E-02 
354, 1.12546849995852E-02 
355, 1.25977657735348E-02 
356, 1.22562600299716E-02 
357, 8.56568105518818E-03 
358, 8.42433422803879E-03 
359, 9.33585315942764E-03 
360, 1.13890413194895E-02 
361, 6.51139253750443E-03 
362, 4.16526524350047E-03 
363, 5.12972008436918E-03 
364, 9.41354967653751E-03 
365, 8.43711569905281E-03 
366, 6.33912952616811E-03 
367, 5.01959212124348E-03 
368, 4.98670479282737E-03 
369, 5.25260483846068E-03 
370, 5.5810627527535E-03 
371, 2.78847478330135E-03 
372, 2.88846041075885E-03 
373, 6.07995875179768E-03 
374, 1.57923307269812E-02 
375, 1.53436306864023E-02 
376, 0.013703721575439 
377, 1.70517098158598E-02 
378, 1.49615881964564E-02 
379, 1.41323143616319E-02 
380, 0.015916034579277 
381, 1.43085038289428E-02 
382, 1.44852148368955E-02 
383, 1.58789958804846E-02 
384, 1.65714956820011E-02 
385, 0.017638374119997 
386, 1.86057761311531E-02 
387, 1.91710572689772E-02 
388, 2.02763956040144E-02 
389, 2.05548219382763E-02 
390, 1.95624381303787E-02 
391, 2.09470149129629E-02 
392, 2.18605697154999E-02 
393, 2.22734827548265E-02 
394, 2.31068916618824E-02 
395, 2.33770050108433E-02 
396, 2.34578419476748E-02 
397, 2.40189228206873E-02 
398, 2.44129933416843E-02 
399, 2.46934350579977E-02 
400, 2.47927140444517E-02 
401, 2.51654796302319E-02 
402, 0.025515004992485 
403, 2.58278679102659E-02 
404, 2.70127821713686E-02 
405, 2.74998135864735E-02 
406, 2.75479853153229E-02 
407, 2.75312531739473E-02 
408, 2.86252219229937E-02 
409, 2.95664835721254E-02 
410, 2.93801221996546E-02 
411, 2.94680316001177E-02 
412, 2.97466348856688E-02 
413, 0.030197411775589 
414, 0.030029833316803 
415, 3.03273070603609E-02 
416, 3.08013055473566E-02 
417, 3.04139610379934E-02 
418, 3.07449027895927E-02 
419, 0.031123423948884 
420, 3.11457365751266E-02 
421, 3.14331389963627E-02 
422, 3.17163281142712E-02 
423, 3.19274626672268E-02 
424, 3.22187282145023E-02 
425, 3.24927158653736E-02 
426, 3.27343754470348E-02 
427, 3.27540524303913E-02 
428, 3.29390987753868E-02 
429, 3.32611426711082E-02 
430, 3.34111265838146E-02 
431, 3.31651866436005E-02 
432, 0.033061932772398 
433, 3.35462428629398E-02 
434, 3.37520912289619E-02 
435, 3.39022055268288E-02 
436, 3.40362824499607E-02 
437, 3.46057154238224E-02 
438, 0.035028014332056 
439, 3.53107824921608E-02 
440, 3.53803113102913E-02 
441, 3.54515053331852E-02 
442, 3.53411212563515E-02 
443, 3.46958711743355E-02 
444, 3.50529961287975E-02 
445, 0.035331416875124 
446, 3.51832695305347E-02 
447, 3.55377942323685E-02 
448, 3.58226373791695E-02 
449, 3.60587723553181E-02 
450, 3.65339256823063E-02 
451, 3.66129167377949E-02 
452, 3.66370491683483E-02 
453, 3.69357950985432E-02 
454, 3.74942272901535E-02 
455, 3.78742516040802E-02 
456, 3.78678366541862E-02 
457, 3.78860682249069E-02 
458, 3.78006659448147E-02 
459, 3.75812537968159E-02 
460, 3.71974855661392E-02 
461, 3.72498892247677E-02 
462, 0.037605669349432 
463, 3.79668436944485E-02 
464, 3.78314293920994E-02 
465, 3.74587178230286E-02 
466, 0.036926344037056 
467, 3.68748493492603E-02 
468, 3.69582995772362E-02 
469, 3.71246822178364E-02 
470, 3.75137031078339E-02 
471, 0.037915825843811 
472, 3.81964035332203E-02 
473, 3.77925187349319E-02 
474, 3.83710227906704E-02 
475, 3.91308255493641E-02 
476, 3.94888631999493E-02 
477, 4.02658879756927E-02 
478, 4.08018045127392E-02 
479, 0.040937501937151 
480, 4.23844419419765E-02 
481, 4.36345115303993E-02 
482, 4.46028187870979E-02 
483, 4.53136749565601E-02 
484, 4.61930744349957E-02 
485, 0.047060638666153 
486, 4.76529225707054E-02 
487, 4.83594909310341E-02 
488, 4.91658747196198E-02 
489, 5.02138212323189E-02 
490, 5.19184544682503E-02 
491, 5.42873181402683E-02 
492, 5.66409341990948E-02 
493, 5.84944300353527E-02 
494, 0.060349814593792 
495, 6.22957348823547E-02 
496, 6.45567774772644E-02 
497, 6.72067180275917E-02 
498, 7.03070387244225E-02 
499, 7.41898193955421E-02 
500, 7.73294791579247E-02 
501, 8.03575441241264E-02 
502, 8.32875519990921E-02 
503, 8.58442857861519E-02 
504, 8.85822400450706E-02 
505, 9.16735082864761E-02 
506, 9.57032889127731E-02 
507, 0.100311271846294 
508, 0.104947134852409 
509, 0.108685098588467 
510, 0.11242987960577 
511, 0.115830563008785 
512, 0.11878252774477 
513, 0.12198394536972 
514, 0.125001654028893 
515, 0.127820536494255 
516, 0.130429863929749 
517, 0.133004263043404 
518, 0.135452583432198 
519, 0.137757256627083 
520, 0.139513105154037 
521, 0.141135409474373 
522, 0.142793983221054 
523, 0.144537702202797 
524, 0.146187961101532 
525, 0.147748589515686 
526, 0.148899585008621 
527, 0.150059029459953 
528, 0.15117709338665 
529, 0.152295529842377 
530, 0.153306171298027 
531, 0.154204323887825 
532, 0.155225187540054 
533, 0.156278744339943 
534, 0.157061815261841 
535, 0.157579943537712 
536, 0.15827950835228 
537, 0.159365370869637 
538, 0.160674050450325 
539, 0.161212623119354 
540, 0.161597609519958 
541, 0.161794498562813 
542, 0.161672785878181 
543, 0.161556631326675 
544, 0.161263570189476 
545, 0.160732090473175 
546, 0.160115003585815 
547, 0.159249365329742 
548, 0.158136516809464 
549, 0.156419411301613 
550, 0.154189273715019 
551, 0.152245715260506 
552, 0.150633275508881 
553, 0.149861961603165 
554, 0.149469077587128 
555, 0.149289146065712 
556, 0.148769035935402 
557, 0.14784836769104 
558, 0.146166443824768 
559, 0.143568962812424 
560, 0.14036226272583 
561, 0.137502431869507 
562, 0.135654091835022 
563, 0.134400695562363 
564, 0.133432924747467 
565, 0.132546469569206 
566, 0.131476297974586 
567, 0.130323424935341 
568, 0.129103541374207 
569, 0.127926528453827 
570, 0.127023845911026 
571, 0.126293078064919 
572, 0.125592544674873 
573, 0.124760255217552 
574, 0.123731903731823 
575, 0.122575625777245 
576, 0.121433779597282 
577, 0.120500266551971 
578, 0.119908131659031 
579, 0.119731463491917 
580, 0.119676873087883 
581, 0.119687125086784 
582, 0.119664914906025 
583, 0.119565553963184 
584, 0.119400322437286 
585, 0.119159869849682 
586, 0.118810646235943 
587, 0.118406966328621 
588, 0.117981947958469 
589, 0.11745223402977 
590, 0.116837121546268 
591, 0.116132013499737 
592, 0.115318849682808 
593, 0.114439979195595 
594, 0.113494075834751 
595, 0.112515144050121 
596, 0.111391052603722 
597, 0.110102020204067 
598, 0.108656905591488 
599, 0.107333295047283 
600, 0.106209695339203 
601, 0.105294525623322 
602, 0.104673214256763 
603, 0.103983245790005 
604, 0.103143960237503 
605, 0.102133840322495 
606, 0.101059958338737 
607, 0.100053451955318 
608, 9.93664115667343E-02 
609, 9.88874956965446E-02 
610, 9.84492003917694E-02 
611, 0.098013624548912 
612, 0.097770668566227 
613, 9.74531248211861E-02 
614, 9.70942005515099E-02 
615, 9.70369875431061E-02 
616, 9.69363003969193E-02 
617, 9.67817530035973E-02 
618, 9.65190157294273E-02 
619, 9.61425676941872E-02 
620, 9.56186652183533E-02 
621, 9.48992520570755E-02 
622, 9.40800830721855E-02 
623, 0.093036413192749 
624, 9.17636603116989E-02 
625, 9.04517844319344E-02 
626, 8.89681875705719E-02 
627, 8.73686298727989E-02 
628, 8.57437774538994E-02 
629, 8.38561207056046E-02 
630, 8.19302424788475E-02 
631, 8.01238045096397E-02 
632, 7.83034563064575E-02 
633, 7.66707435250282E-02 
634, 7.52714872360229E-02 
635, 7.39491805434227E-02 
636, 7.26805105805397E-02 
637, 7.15163797140121E-02 
638, 7.07279592752457E-02 
639, 6.97156563401222E-02 
640, 6.86618089675903E-02 
641, 6.77446573972702E-02 
642, 6.66352212429047E-02 
643, 6.53989836573601E-02 
644, 6.40244856476784E-02 
645, 6.25469237565994E-02 
646, 6.09868615865707E-02 
647, 5.93389421701431E-02 
648, 0.057620145380497 
649, 5.59299141168594E-02 
650, 5.42991459369659E-02 
651, 5.28037622570992E-02 
652, 5.14936707913876E-02 
653, 5.02751544117928E-02 
654, 0.049133125692606 
655, 4.81434389948845E-02 
656, 4.74070683121681E-02 
657, 4.69105020165443E-02 
658, 4.64739017188549E-02 
659, 4.61572334170341E-02 
660, 0.045939065515995 
661, 0.045827891677618 
662, 4.58477474749088E-02 
663, 4.59766872227192E-02 
664, 4.62462566792965E-02 
665, 4.66463156044483E-02 
666, 4.72504273056984E-02 
667, 4.80922944843769E-02 
668, 4.96429949998856E-02 
669, 0.0515131726861 
670, 0.053777176886797 
671, 5.69994449615479E-02 
672, 6.08009211719036E-02 
673, 6.51914328336716E-02 
674, 7.05191045999527E-02 
675, 7.67780095338821E-02 
676, 8.35771784186363E-02 
677, 0.090991698205471 
678, 9.94758158922195E-02 
679, 0.1086380854249 
680, 0.118448257446289 
681, 0.128864243626595 
682, 0.13952474296093 
683, 0.15033195912838 
684, 0.161295011639595 
685, 0.172264978289604 
686, 0.18314565718174 
687, 0.193919718265533 
688, 0.204417020082474 
689, 0.214784860610962 
690, 0.225022047758102 
691, 0.234730035066605 
692, 0.244243398308754 
693, 0.253518432378769 
694, 0.262417078018188 
695, 0.270892083644867 
696, 0.27918866276741 
697, 0.287392377853394 
698, 0.295469880104065 
699, 0.303387105464935 
700, 0.311127722263336 
701, 0.318942338228226 
702, 0.326509535312653 
703, 0.333926677703857 
704, 0.341526687145233 
705, 0.348989725112915 
706, 0.356390506029129 
707, 0.36381059885025 
708, 0.370873391628265 
709, 0.377770602703094 
710, 0.384515672922134 
711, 0.390906363725662 
712, 0.397159188985825 
713, 0.403260320425034 
714, 0.409024566411972 
715, 0.41459646821022 
716, 0.420034021139145 
717, 0.42536661028862 
718, 0.430488675832748 
719, 0.435386925935745 
720, 0.439986914396286 
721, 0.444464027881622 
722, 0.448710083961487 
723, 0.452697783708572 
724, 0.456407636404037 
725, 0.459996312856674 
726, 0.463432252407074 
727, 0.466466724872589 
728, 0.469328045845032 
729, 0.472017854452133 
730, 0.474460065364838 
731, 0.476634204387665 
732, 0.478786557912827 
733, 0.480962306261063 
734, 0.482724338769913 
735, 0.48428538441658 
736, 0.485700190067291 
737, 0.487234443426132 
738, 0.488647401332855 
739, 0.490008473396301 
740, 0.491340577602386 
741, 0.492408394813538 
742, 0.493347495794296 
743, 0.494177252054214 
744, 0.494908064603806 
745, 0.495558023452759 
746, 0.496146023273468 
747, 0.4968221783638 
748, 0.497508525848389 
749, 0.498043030500412 
750, 0.497995465993881 
751, 0.497647166252136 
752, 0.497646600008011 
753, 0.498364359140396 
754, 0.49899822473526 
755, 0.499602228403091 
756, 0.500155985355377 
757, 0.501017034053802 
758, 0.501700818538666 
759, 0.502193152904511 
760, 0.502506613731384 
761, 0.502985060214996 
762, 0.503453850746155 
763, 0.503755748271942 
764, 0.504039406776428 
765, 0.504242241382599 
766, 0.504342615604401 
767, 0.50486820936203 
768, 0.505235254764557 
769, 0.505469083786011 
770, 0.505656599998474 
771, 0.505894243717194 
772, 0.506215929985046 
773, 0.506712019443512 
774, 0.506946265697479 
775, 0.507093250751495 
776, 0.507193982601166 
777, 0.507606625556946 
778, 0.507917523384094 
779, 0.508127987384796 
780, 0.50844669342041 
781, 0.508676826953888 
782, 0.50883936882019 
783, 0.508927583694458 
784, 0.509181022644043 
785, 0.509402930736542 
786, 0.509472370147705 
787, 0.509686470031738 
788, 0.509857058525085 
789, 0.509961903095245 
790, 0.510072469711304 
791, 0.510102570056915 
792, 0.510128080844879 
793, 0.510392904281616 
794, 0.510659098625183 
795, 0.510780811309814 
796, 0.510567009449005 
797, 0.510438680648804 
798, 0.510100245475769 
799, 0.509511053562164 
800, 0.507867574691772 
801, 0.504643499851227 
802, 0.501466989517212 
803, 0.498605847358704 
804, 0.555326223373413 
805, 0.587593913078308 
806, 0.512728333473206 
807, 0.500090897083282 
808, 0.502408862113953 
809, 0.505524635314941 
810, 0.5074782371521 
811, 0.509275794029236 
812, 0.510670363903046 
813, 0.511677384376526 
814, 0.512515246868134 
815, 0.51324588060379 
816, 0.513987362384796 
817, 0.514429271221161 
818, 0.514861464500427 
819, 0.515459895133972 
820, 0.515948474407196 
821, 0.516387343406677 
822, 0.516773223876953 
823, 0.517019808292389 
824, 0.517374396324158 
825, 0.517755210399628 
826, 0.517892956733704 
827, 0.518169820308685 
828, 0.518508195877075 
829, 0.518867194652557 
830, 0.519105494022369 
831, 0.519408762454987 
832, 0.519826889038086 
833, 0.519859373569489 
834, 0.519896626472473 
835, 0.519966721534729 
836, 0.520226538181305 
837, 0.520232677459717 
838, 0.520223736763 
839, 0.520519196987152 
840, 0.520929753780365 
841, 0.521188259124756 
842, 0.521146476268768 
843, 0.521418809890747 
844, 0.521645903587341 
845, 0.521787106990814 
846, 0.52163153886795 
847, 0.521642327308655 
848, 0.521763622760773 
849, 0.521942913532257 
850, 0.521756529808044 
851, 0.521516144275665 
852, 0.521380066871643 
853, 0.521713614463806 
854, 0.52202296257019 
855, 0.522234678268433 
856, 0.52230167388916 
857, 0.522164583206177 
858, 0.521945774555206 
859, 0.522028386592865 
860, 0.521947622299194 
861, 0.521725058555603 
862, 0.521303355693817 
863, 0.521276473999023 
864, 0.521328270435333 
865, 0.52139949798584 
866, 0.52131861448288 
867, 0.521173119544983 
868, 0.520976483821869 
869, 0.520790278911591 
870, 0.520770013332367 
871, 0.520710170269012 
872, 0.520291149616241 
873, 0.520285546779633 
874, 0.520150244235992 
875, 0.519636273384094 
876, 0.519637286663055 
877, 0.519626498222351 
878, 0.519557356834412 
879, 0.519299149513245 
880, 0.51901388168335 
881, 0.518751204013824 
882, 0.518642902374268 
883, 0.518348574638367 
884, 0.518168270587921 
885, 0.518341302871704 
886, 0.518300890922546 
887, 0.518028974533081 
888, 0.517522871494293 
889, 0.517371773719788 
890, 0.517102539539337 
891, 0.516670823097229 
892, 0.515808880329132 
893, 0.515612959861755 
894, 0.515768110752106 
895, 0.516173720359802 
896, 0.515895962715149 
897, 0.51563024520874 
898, 0.515546917915344 
899, 0.51519900560379 
900, 0.514973044395447 
901, 0.514871954917908 
902, 0.514929890632629 
903, 0.514880537986755 
904, 0.514816880226135 
905, 0.514867782592773 
906, 0.51441901922226 
907, 0.514050900936127 
908, 0.514018297195435 
909, 0.513969123363495 
910, 0.513747274875641 
911, 0.513378918170929 
912, 0.513303399085999 
913, 0.513252198696136 
914, 0.513118147850037 
915, 0.512590646743774 
916, 0.512218475341797 
917, 0.511764585971832 
918, 0.51104736328125 
919, 0.510327339172363 
920, 0.509901583194733 
921, 0.509811758995056 
922, 0.50906628370285 
923, 0.508444786071777 
924, 0.508087575435638 
925, 0.508671820163727 
926, 0.50849175453186 
927, 0.508032560348511 
928, 0.507636606693268 
929, 0.507003724575043 
930, 0.506239771842957 
931, 0.505354285240173 
932, 0.50520783662796 
933, 0.504851043224335 
934, 0.504335582256317 
935, 0.504049241542816 
936, 0.503362834453583 
937, 0.502587974071503 
938, 0.502162635326386 
939, 0.501384496688843 
940, 0.500392377376556 
941, 0.499185591936111 
942, 0.498669743537903 
943, 0.497783690690994 
944, 0.496510416269302 
945, 0.495781153440475 
946, 0.494970679283142 
947, 0.494287699460983 
948, 0.494330316781998 
949, 0.494025617837906 
950, 0.493598252534866 
951, 0.493151724338531 
952, 0.492977380752563 
953, 0.492874771356583 
954, 0.492818772792816 
955, 0.49284353852272 
956, 0.492874920368195 
957, 0.492782682180405 
958, 0.491950064897537 
959, 0.491478085517883 
960, 0.491353690624237 
961, 0.49176698923111 
962, 0.491848081350327 
963, 0.49208602309227 
964, 0.49265068769455 
965, 0.493401199579239 
966, 0.493101954460144 
967, 0.492076396942139 
968, 0.492872416973114 
969, 0.49323782324791 
970, 0.493486315011978 
971, 0.494028002023697 
972, 0.493980914354324 
973, 0.493738859891891 
974, 0.493403404951096 
975, 0.4938725233078 
976, 0.495615035295486 
977, 0.49674665927887 
978, 0.497346878051758 
979, 0.497202843427658 
980, 0.497419893741608 
981, 0.49864250421524 
982, 0.499662965536118 
983, 0.499636769294739 
984, 0.499639093875885 
985, 0.499962657690048 
986, 0.500264763832092 
987, 0.500314474105835 
988, 0.500399947166443 
989, 0.500312149524689 
990, 0.500053882598877 
991, 0.499990016222 
992, 0.500124037265778 
993, 0.500120222568512 
994, 0.500180602073669 
995, 0.500593543052673 
996, 0.501537978649139 
997, 0.502559423446655 
998, 0.503574967384338 
999, 0.504443764686584 
1000, 0.50453382730484 
1001, 0.504599690437317 
1002, 0.504797756671906 
1003, 0.504925012588501 
1004, 0.504461824893951 
1005, 0.50361168384552 
1006, 0.50322037935257 
1007, 0.503026366233826 
1008, 0.50293892621994 
1009, 0.50334107875824 
1010, 0.503545582294464 
1011, 0.503728210926056 
1012, 0.503725826740265 
1013, 0.504379630088806 
1014, 0.50493586063385 
1015, 0.505400419235229 
1016, 0.506024062633514 
1017, 0.506835758686066 
1018, 0.507604718208313 
1019, 0.508629024028778 
1020, 0.509223282337189 
1021, 0.510479032993317 
1022, 0.511727035045624 
1023, 0.512832164764404 
1024, 0.513907730579376 
1025, 0.514899730682373 
1026, 0.515552043914795 
1027, 0.516270279884338 
1028, 0.517440319061279 
1029, 0.518405377864838 
1030, 0.518846392631531 
1031, 0.519223392009735 
1032, 0.519578099250793 
1033, 0.519879817962646 
1034, 0.520226240158081 
1035, 0.52071738243103 
1036, 0.521195888519287 
1037, 0.521488666534424 
1038, 0.521522581577301 
1039, 0.521826148033142 
1040, 0.522233784198761 
1041, 0.522578835487366 
1042, 0.523052453994751 
1043, 0.523352205753326 
1044, 0.523461580276489 
1045, 0.523899912834167 
1046, 0.524562180042267 
1047, 0.52496862411499 
1048, 0.525083124637604 
1049, 0.52514922618866 
1050, 0.525371909141541 
1051, 0.525792181491852 
1052, 0.526108801364899 
1053, 0.52643221616745 
1054, 0.526748299598694 
1055, 0.52687019109726 
1056, 0.527157664299011 
1057, 0.527554094791412 
1058, 0.52796596288681 
1059, 0.528232932090759 
1060, 0.528244614601135 
1061, 0.528260350227356 
1062, 0.528391182422638 
1063, 0.528342306613922 
1064, 0.528041660785675 
1065, 0.527788817882538 
1066, 0.527722597122192 
1067, 0.527713477611542 
1068, 0.527588546276093 
1069, 0.527161061763763 
1070, 0.526406943798065 
1071, 0.525553047657013 
1072, 0.524750053882599 
1073, 0.523939728736877 
1074, 0.523604214191437 
1075, 0.52338308095932 
1076, 0.523154377937317 
1077, 0.522959768772125 
1078, 0.522938251495361 
1079, 0.523062527179718 
1080, 0.523370325565338 
1081, 0.52382105588913 
1082, 0.524261772632599 
1083, 0.524587631225586 
1084, 0.524949491024017 
1085, 0.525217950344086 
1086, 0.525366127490997 
1087, 0.525536179542542 
1088, 0.525651574134827 
1089, 0.525655448436737 
1090, 0.525715947151184 
1091, 0.525692820549011 
1092, 0.525574147701263 
1093, 0.525339126586914 
1094, 0.524925053119659 
1095, 0.52449107170105 
1096, 0.52416318655014 
1097, 0.523770153522491 
1098, 0.523274421691895 
1099, 0.522851943969727 
1100, 0.522534191608429 
1101, 0.522220134735107 
1102, 0.521926522254944 
1103, 0.521464228630066 
1104, 0.520902454853058 
1105, 0.520452439785004 
1106, 0.520129859447479 
1107, 0.519721627235413 
1108, 0.519197463989258 
1109, 0.518695712089539 
1110, 0.51818972826004 
1111, 0.517714560031891 
1112, 0.51706337928772 
1113, 0.516288578510284 
1114, 0.515671849250793 
1115, 0.51522821187973 
1116, 0.514797329902649 
1117, 0.514261603355408 
1118, 0.513455152511597 
1119, 0.512506246566772 
1120, 0.511567294597626 
1121, 0.510735273361206 
1122, 0.509704172611237 
1123, 0.508620381355286 
1124, 0.507585942745209 
1125, 0.506720125675201 
1126, 0.505451738834381 
1127, 0.504160106182098 
1128, 0.502754926681519 
1129, 0.501045227050781 
1130, 0.499627083539963 
1131, 0.496940016746521 
1132, 0.494732648134232 
1133, 0.492193251848221 
1134, 0.489879816770554 
1135, 0.487727224826813 
1136, 0.485552549362183 
1137, 0.483248382806778 
1138, 0.481115937232971 
1139, 0.478833824396133 
1140, 0.477016746997833 
1141, 0.474894344806671 
1142, 0.473240375518799 
1143, 0.471451997756958 
1144, 0.470136404037476 
1145, 0.46882638335228 
1146, 0.467780768871307 
1147, 0.466792047023773 
1148, 0.466095149517059 
1149, 0.465523511171341 
1150, 0.464871138334274 
1151, 0.464216113090515 
1152, 0.463473737239838 
1153, 0.462575733661652 
1154, 0.461892187595367 
1155, 0.46114507317543 
1156, 0.4604452252388 
1157, 0.459692358970642 
1158, 0.458958655595779 
1159, 0.45823922753334 
1160, 0.457612425088882 
1161, 0.457080185413361 
1162, 0.456691473722458 
1163, 0.45642364025116 
1164, 0.456126391887665 
1165, 0.455856174230576 
1166, 0.455566704273224 
1167, 0.455230742692947 
1168, 0.454968988895416 
1169, 0.454856127500534 
1170, 0.454713463783264 
1171, 0.454372882843018 
1172, 0.454041957855225 
1173, 0.453879863023758 
1174, 0.453715533018112 
1175, 0.453514397144318 
1176, 0.453314989805222 
1177, 0.452993929386139 
1178, 0.452607601881027 
1179, 0.452389419078827 
1180, 0.452317625284195 
1181, 0.45213583111763 
1182, 0.451810657978058 
1183, 0.451498001813889 
1184, 0.451245576143265 
1185, 0.451010316610336 
1186, 0.450796067714691 
1187, 0.450569361448288 
1188, 0.450255185365677 
1189, 0.449950128793716 
1190, 0.449774354696274 
1191, 0.449601083993912 
1192, 0.449326902627945 
1193, 0.44904437661171 
1194, 0.448950439691544 
1195, 0.448900043964386 
1196, 0.448831379413605 
1197, 0.44874894618988 
1198, 0.448783695697784 
1199, 0.448895126581192 
1200, 0.449014127254486 
1201, 0.449132174253464 
1202, 0.449247539043427 
1203, 0.449365466833115 
1204, 0.449535459280014 
1205, 0.449817329645157 
1206, 0.450078964233398 
1207, 0.450269162654877 
1208, 0.450476765632629 
1209, 0.45083612203598 
1210, 0.451193332672119 
1211, 0.451354026794434 
1212, 0.451514631509781 
1213, 0.451832711696625 
1214, 0.452165126800537 
1215, 0.452516585588455 
1216, 0.452873080968857 
1217, 0.453109711408615 
1218, 0.453294724225998 
1219, 0.453561305999756 
1220, 0.453884154558182 
1221, 0.454173684120178 
1222, 0.454430550336838 
1223, 0.454643964767456 
1224, 0.454790413379669 
1225, 0.454960018396378 
1226, 0.455199867486954 
1227, 0.455439507961273 
1228, 0.455679386854172 
1229, 0.455907374620438 
1230, 0.456031382083893 
1231, 0.456170171499252 
1232, 0.456558167934418 
1233, 0.456946104764938 
1234, 0.457218706607819 
1235, 0.457478761672974 
1236, 0.45772710442543 
1237, 0.457974314689636 
1238, 0.458167910575867 
1239, 0.45832160115242 
1240, 0.458597898483276 
1241, 0.458967298269272 
1242, 0.459182769060135 
1243, 0.459271669387817 
1244, 0.459418505430222 
1245, 0.459611624479294 
1246, 0.45975461602211 
1247, 0.45983362197876 
1248, 0.459947407245636 
1249, 0.460172146558762 
1250, 0.460380613803864 
1251, 0.460423111915588 
1252, 0.460441052913666 
1253, 0.460297882556915 
1254, 0.460170686244965 
1255, 0.460038930177689 
1256, 0.459891200065613 
1257, 0.459514886140823 
1258, 0.459137260913849 
1259, 0.458451747894287 
1260, 0.457726716995239 
1261, 0.457065612077713 
1262, 0.456480592489243 
1263, 0.455871939659119 
1264, 0.455317407846451 
1265, 0.454889744520187 
1266, 0.454630672931671 
1267, 0.454545229673386 
1268, 0.454669982194901 
1269, 0.454873919487 
1270, 0.455208450555801 
1271, 0.455648183822632 
1272, 0.456238776445389 
1273, 0.456893712282181 
1274, 0.457471668720245 
1275, 0.45808333158493 
1276, 0.45853653550148 
1277, 0.45896127820015 
1278, 0.459128856658936 
1279, 0.459277659654617 
1280, 0.459256082773209 
1281, 0.4592245221138 
1282, 0.459075599908829 
1283, 0.458921879529953 
1284, 0.458751440048218 
1285, 0.458566427230835 
1286, 0.458165228366852 
1287, 0.457679450511932 
1288, 0.457262933254242 
1289, 0.456887930631638 
1290, 0.456413149833679 
1291, 0.455867260694504 
1292, 0.455342292785645 
1293, 0.454830914735794 
1294, 0.454278528690338 
1295, 0.453615248203278 
1296, 0.452947825193405 
1297, 0.452356457710266 
1298, 0.451734572649002 
1299, 0.451044976711273 
1300, 0.450347006320953 
1301, 0.44944754242897 
1302, 0.448533296585083 
1303, 0.447749406099319 
1304, 0.446973621845245 
1305, 0.445959657430649 
1306, 0.444902360439301 
1307, 0.44391855597496 
1308, 0.442968159914017 
1309, 0.441898137331009 
1310, 0.440808922052383 
1311, 0.439606547355652 
1312, 0.438328325748444 
1313, 0.437183767557144 
1314, 0.436100214719772 
1315, 0.434856086969376 
1316, 0.433513998985291 
1317, 0.432125985622406 
1318, 0.430592149496078 
1319, 0.429059445858002 
1320, 0.427608460187912 
1321, 0.426108688116074 
1322, 0.424585998058319 
1323, 0.423094779253006 
1324, 0.421473354101181 
1325, 0.419816583395004 
1326, 0.418128609657288 
1327, 0.416440278291702 
1328, 0.414740443229675 
1329, 0.41303762793541 
1330, 0.411235064268112 
1331, 0.409408539533615 
1332, 0.407602369785309 
1333, 0.405805677175522 
1334, 0.403999865055084 
1335, 0.402191013097763 
1336, 0.400345712900162 
1337, 0.398502737283707 
1338, 0.396752715110779 
1339, 0.395024567842484 
1340, 0.393200606107712 
1341, 0.391311049461365 
1342, 0.389431536197662 
1343, 0.387566387653351 
1344, 0.385705769062042 
1345, 0.383865654468536 
1346, 0.382047891616821 
1347, 0.380221843719482 
1348, 0.378278732299805 
1349, 0.376113265752792 
1350, 0.373974412679672 
1351, 0.37196210026741 
1352, 0.36990487575531 
1353, 0.367783486843109 
1354, 0.365696996450424 
1355, 0.363776177167892 
1356, 0.361874848604202 
1357, 0.360008478164673 
1358, 0.35814693570137 
1359, 0.356256574392319 
1360, 0.354357302188873 
1361, 0.352448016405106 
1362, 0.350565910339355 
1363, 0.348753541707993 
1364, 0.346987426280975 
1365, 0.345062404870987 
1366, 0.343094825744629 
1367, 0.341144382953644 
1368, 0.339216768741608 
1369, 0.337253779172897 
1370, 0.335232138633728 
1371, 0.332984268665314 
1372, 0.330586284399033 
1373, 0.32790607213974 
1374, 0.324968636035919 
1375, 0.321850627660751 
1376, 0.318502992391586 
1377, 0.314815223217011 
1378, 0.310718953609467 
1379, 0.306368052959442 
1380, 0.301558047533035 
1381, 0.296646118164063 
1382, 0.291439563035965 
1383, 0.286224782466888 
1384, 0.280813753604889 
1385, 0.275388300418854 
1386, 0.269718080759048 
1387, 0.264139741659164 
1388, 0.258474200963974 
1389, 0.25289061665535 
1390, 0.247238144278526 
1391, 0.241669803857803 
1392, 0.236082583665848 
1393, 0.230576023459435 
1394, 0.225027337670326 
1395, 0.21955569088459 
1396, 0.214317560195923 
1397, 0.2092215269804 
1398, 0.204193204641342 
1399, 0.199207454919815 
1400, 0.194697037339211 
1401, 0.190377116203308 
1402, 0.186230659484863 
1403, 0.18221141397953 
1404, 0.178458258509636 
1405, 0.17487558722496 
1406, 0.171455711126328 
1407, 0.168154060840607 
1408, 0.165139585733414 
1409, 0.162385582923889 
1410, 0.15979591012001 
1411, 0.157358795404434 
1412, 0.15511018037796 
1413, 0.153108760714531 
1414, 0.151165261864662 
1415, 0.149307891726494 
1416, 0.1475840061903 
1417, 0.146091625094414 
1418, 0.144638508558273 
1419, 0.143228083848953 
1420, 0.141881793737411 
1421, 0.140780970454216 
1422, 0.139716073870659 
1423, 0.138672441244125 
1424, 0.137655451893806 
1425, 0.136805936694145 
1426, 0.136019542813301 
1427, 0.135381653904915 
1428, 0.134755432605743 
1429, 0.134101629257202 
1430, 0.133470743894577 
1431, 0.132999181747437 
1432, 0.132560223340988 
1433, 0.132142335176468 
1434, 0.131725922226906 
1435, 0.131351485848427 
1436, 0.130991786718369 
1437, 0.130750179290771 
1438, 0.130563914775848 
1439, 0.130417212843895 
1440, 0.130267739295959 
1441, 0.130191385746002 
1442, 0.130112931132317 
1443, 0.130029752850533 
1444, 0.129975944757462 
1445, 0.129897609353065 
1446, 0.129817754030228 
1447, 0.129798486828804 
1448, 0.129831463098526 
1449, 0.129862323403358 
1450, 0.12988743185997 
1451, 0.129975318908691 
1452, 0.13008551299572 
1453, 0.130223020911217 
1454, 0.130447745323181 
1455, 0.130668967962265 
1456, 0.130862101912498 
1457, 0.131085321307182 
1458, 0.131366774439812 
1459, 0.131662219762802 
1460, 0.131959691643715 
1461, 0.132255613803864 
1462, 0.13260518014431 
1463, 0.132992878556252 
1464, 0.133438944816589 
1465, 0.133910179138184 
1466, 0.1345274746418 
1467, 0.135134011507034 
1468, 0.135721519589424 
1469, 0.136371940374374 
1470, 0.137184828519821 
1471, 0.137998983263969 
1472, 0.138885542750359 
1473, 0.139794990420341 
1474, 0.140773057937622 
1475, 0.141754806041718 
1476, 0.142744481563568 
1477, 0.143743589520454 
1478, 0.144798278808594 
1479, 0.145847409963608 
1480, 0.146848663687706 
1481, 0.147837460041046 
1482, 0.148842856287956 
1483, 0.149867117404938 
1484, 0.150879368185997 
1485, 0.151871919631958 
1486, 0.152958899736404 
1487, 0.154095605015755 
1488, 0.15518581867218 
1489, 0.156265616416931 
1490, 0.157379001379013 
1491, 0.15852427482605 
1492, 0.159696519374847 
1493, 0.160865366458893 
1494, 0.162008747458458 
1495, 0.163130402565002 
1496, 0.164306446909904 
1497, 0.16551785171032 
1498, 0.166739955544472 
1499, 0.167970210313797 
1500, 0.169191434979439 
1501, 0.170420318841934 
1502, 0.171643763780594 
1503, 0.172846004366875 
1504, 0.174056828022003 
1505, 0.17527824640274 
1506, 0.176493003964424 
1507, 0.17769056558609 
1508, 0.178900167346001 
1509, 0.180122926831245 
1510, 0.181316331028938 
1511, 0.182504758238792 
1512, 0.183703660964966 
1513, 0.184898048639297 
1514, 0.186101466417313 
1515, 0.187316626310349 
1516, 0.188550531864166 
1517, 0.189785286784172 
1518, 0.190978199243546 
1519, 0.192126572132111 
1520, 0.193248361349106 
1521, 0.194331333041191 
1522, 0.195392593741417 
1523, 0.196429595351219 
1524, 0.197446912527084 
1525, 0.198389455676079 
1526, 0.199321076273918 
1527, 0.20024561882019 
1528, 0.20118547976017 
1529, 0.202150508761406 
1530, 0.203186750411987 
1531, 0.204427242279053 
1532, 0.205676302313805 
1533, 0.206990852952003 
1534, 0.208284571766853 
1535, 0.209565684199333 
1536, 0.210854053497314 
1537, 0.21212001144886 
1538, 0.213383719325066 
1539, 0.214613243937492 
1540, 0.215817809104919 
1541, 0.216899022459984 
1542, 0.217974811792374 
1543, 0.218997001647949 
1544, 0.21999679505825 
1545, 0.220986545085907 
1546, 0.221984967589378 
1547, 0.223031759262085 
1548, 0.224073693156242 
1549, 0.225032821297646 
1550, 0.225982561707497 
1551, 0.22696153819561 
1552, 0.227934911847115 
1553, 0.228911876678467 
1554, 0.229909956455231 
1555, 0.230895414948463 
1556, 0.231858015060425 
1557, 0.232796683907509 
1558, 0.233726918697357 
1559, 0.234581768512726 
1560, 0.235434159636497 
1561, 0.236341148614883 
1562, 0.23724652826786 
1563, 0.238110676407814 
1564, 0.238976925611496 
1565, 0.239850029349327 
1566, 0.240718603134155 
1567, 0.241553276777267 
1568, 0.242375165224075 
1569, 0.24319925904274 
1570, 0.244037732481956 
1571, 0.244854882359505 
1572, 0.245656490325928 
1573, 0.246501207351685 
1574, 0.247347205877304 
1575, 0.248124793171883 
1576, 0.24890872836113 
1577, 0.24968846142292 
1578, 0.25044921040535 
1579, 0.25121009349823 
1580, 0.2519690990448 
1581, 0.252681165933609 
1582, 0.253400534391403 
1583, 0.254110276699066 
1584, 0.254809737205505 
1585, 0.255514413118362 
1586, 0.256216406822205 
1587, 0.256916493177414 
1588, 0.257625669240952 
1589, 0.25826358795166 
1590, 0.258888095617294 
1591, 0.259524643421173 
1592, 0.260161221027374 
1593, 0.260822504758835 
1594, 0.261488407850266 
1595, 0.262195944786072 
1596, 0.262921303510666 
1597, 0.263603806495667 
1598, 0.264278799295425 
1599, 0.264932900667191 
1600, 0.265567362308502 
1601, 0.26616707444191 
1602, 0.266782879829407 
1603, 0.267339915037155 
1604, 0.267866462469101 
1605, 0.268437296152115 
1606, 0.269020766019821 
1607, 0.269642353057861 
1608, 0.270276993513107 
1609, 0.270856976509094 
1610, 0.271412909030914 
1611, 0.27195131778717 
1612, 0.272500932216644 
1613, 0.273059666156769 
1614, 0.273613303899765 
1615, 0.274168491363525 
1616, 0.274727553129196 
1617, 0.275209486484528 
1618, 0.275679498910904 
1619, 0.276174396276474 
1620, 0.276666879653931 
1621, 0.277077794075012 
1622, 0.277487576007843 
1623, 0.277969628572464 
1624, 0.278452128171921 
1625, 0.278919249773026 
1626, 0.27938187122345 
1627, 0.279752731323242 
1628, 0.280116140842438 
1629, 0.280527681112289 
1630, 0.280945658683777 
1631, 0.281316667795181 
1632, 0.281674474477768 
1633, 0.281980454921722 
1634, 0.282285243272781 
1635, 0.282560706138611 
1636, 0.282826870679855 
1637, 0.283124357461929 
1638, 0.283422857522964 
1639, 0.283688247203827 
1640, 0.283961266279221 
1641, 0.28426268696785 
1642, 0.284558176994324 
1643, 0.28491935133934 
1644, 0.285307884216309 
1645, 0.285729885101318 
1646, 0.286152303218842 
1647, 0.286501258611679 
1648, 0.286834537982941 
1649, 0.287126928567886 
1650, 0.287420719861984 
1651, 0.287714064121246 
1652, 0.287992805242538 
1653, 0.288138389587402 
1654, 0.288288801908493 
1655, 0.288471013307571 
1656, 0.28865060210228 
1657, 0.288825154304504 
1658, 0.288994818925858 
1659, 0.289157450199127 
1660, 0.289297729730606 
1661, 0.289356619119644 
1662, 0.289440035820007 
1663, 0.28955739736557 
1664, 0.289642035961151 
1665, 0.289640456438065 
1666, 0.28963714838028 
1667, 0.28966024518013 
1668, 0.289694875478745 
1669, 0.289745599031448 
1670, 0.289769947528839 
1671, 0.289726167917252 
1672, 0.289676040410995 
1673, 0.289624840021133 
1674, 0.289573460817337 
1675, 0.289539605379105 
1676, 0.2894506752491 
1677, 0.289274215698242 
1678, 0.289091974496841 
1679, 0.288910359144211 
1680, 0.288707196712494 
1681, 0.288474589586258 
1682, 0.288247585296631 
1683, 0.288011461496353 
1684, 0.287724912166595 
1685, 0.287401229143143 
1686, 0.287078619003296 
1687, 0.286770612001419 
1688, 0.286437541246414 
1689, 0.286085337400436 
1690, 0.285695284605026 
1691, 0.285294502973557 
1692, 0.284825474023819 
1693, 0.28431224822998 
1694, 0.283870428800583 
1695, 0.28345000743866 
1696, 0.283029109239578 
1697, 0.282614529132843 
1698, 0.282207787036896 
1699, 0.281789302825928 
1700, 0.281310677528381 
1701, 0.280819922685623 
1702, 0.280352860689163 
1703, 0.279891222715378 
1704, 0.27931359410286 
1705, 0.278718948364258 
1706, 0.278161913156509 
1707, 0.27761048078537 
1708, 0.277336597442627 
1709, 0.277086436748505 
1710, 0.276936113834381 
1711, 0.276794224977493 
1712, 0.27664652466774 
1713, 0.276488780975342 
1714, 0.276307135820389 
1715, 0.27612292766571 
1716, 0.275850743055344 
1717, 0.275560438632965 
1718, 0.275218844413757 
1719, 0.274875432252884 
1720, 0.274498283863068 
1721, 0.274098187685013 
1722, 0.273606896400452 
1723, 0.27311697602272 
1724, 0.272691279649735 
1725, 0.27226921916008 
1726, 0.27183672785759 
1727, 0.27136093378067 
1728, 0.270792573690414 
1729, 0.270238876342773 
1730, 0.269715666770935 
1731, 0.26919811964035 
1732, 0.268696963787079 
1733, 0.268199592828751 
1734, 0.267691761255264 
1735, 0.267136842012405 
1736, 0.266545563936234 
1737, 0.265946179628372 
1738, 0.265338331460953 
1739, 0.264746904373169 
1740, 0.264156043529511 
1741, 0.263530164957047 
1742, 0.262889444828033 
1743, 0.26222038269043 
1744, 0.261538296937943 
1745, 0.260851263999939 
1746, 0.260154008865356 
1747, 0.259495675563812 
1748, 0.25885409116745 
1749, 0.258283734321594 
1750, 0.257720559835434 
1751, 0.256952673196793 
1752, 0.256162643432617 
1753, 0.255379021167755 
1754, 0.254593163728714 
1755, 0.253943055868149 
1756, 0.253278285264969 
1757, 0.252451777458191 
1758, 0.25164595246315 
1759, 0.250979840755463 
1760, 0.250306159257889 
1761, 0.249627530574799 
1762, 0.248944818973541 
1763, 0.248262345790863 
1764, 0.247615903615952 
1765, 0.247048586606979 
1766, 0.246472075581551 
1767, 0.245879963040352 
1768, 0.245316699147224 
1769, 0.244798675179482 
1770, 0.244310423731804 
1771, 0.243849635124207 
1772, 0.243338361382484 
1773, 0.242787823081017 
1774, 0.242332518100739 
1775, 0.241936326026917 
1776, 0.241556525230408 
1777, 0.241184592247009 
1778, 0.240807294845581 
1779, 0.240423262119293 
1780, 0.240125522017479 
1781, 0.239850446581841 
1782, 0.239553853869438 
1783, 0.239256665110588 
1784, 0.239022299647331 
1785, 0.238791406154633 
1786, 0.238729357719421 
1787, 0.23866206407547 
1788, 0.238547891378403 
1789, 0.238436669111252 
1790, 0.238345444202423 
1791, 0.238251551985741 
1792, 0.238154843449593 
1793, 0.238091588020325 
1794, 0.23811936378479 
1795, 0.238091111183167 
1796, 0.237952992320061 
1797, 0.237860426306725 
1798, 0.239885345101357 
1799, 0.239808112382889 
1800, 0.239709079265594 
1801, 0.239583805203438 
1802, 0.239477291703224 
1803, 0.239365175366402 
1804, 0.239056184887886 
1805, 0.238750725984573 
1806, 0.238583847880363 
1807, 0.23843702673912 
1808, 0.238568007946014 
1809, 0.23874095082283 
1810, 0.238801896572113 
1811, 0.238842397928238 
1812, 0.238716632127762 
1813, 0.238309234380722 
1814, 0.237970843911171 
1815, 0.23800690472126 
1816, 0.238049998879433 
1817, 0.237877517938614 
1818, 0.237626150250435 
1819, 0.237414076924324 
1820, 0.237233236432076 
1821, 0.236978888511658 
1822, 0.236687287688255 
1823, 0.236420899629593 
1824, 0.236022427678108 
1825, 0.235625416040421 
1826, 0.235091164708138 
1827, 0.234552443027496 
1828, 0.233759328722954 
1829, 0.23284724354744 
1830, 0.231941550970078 
1831, 0.230921924114227 
1832, 0.229769498109818 
1833, 0.227783769369125 
1834, 0.225923418998718 
1835, 0.222817286849022 
1836, 0.219890788197517 
1837, 0.216604828834534 
1838, 0.213469073176384 
1839, 0.210885062813759 
1840, 0.208977043628693 
1841, 0.207365825772285 
1842, 0.206323564052582 
1843, 0.205380469560623 
1844, 0.205215036869049 
1845, 0.205082476139069 
1846, 0.20546792447567 
1847, 0.206032931804657 
1848, 0.206696018576622 
1849, 0.207422003149986 
1850, 0.208126559853554 
1851, 0.208552807569504 
1852, 0.209001019597054 
1853, 0.208390682935715 
1854, 0.20770600438118 
1855, 0.206549346446991 
1856, 0.205177590250969 
1857, 0.203599199652672 
1858, 0.201878115534782 
1859, 0.199801117181778 
1860, 0.197130739688873 
1861, 0.194367736577988 
1862, 0.19131538271904 
1863, 0.188216477632523 
1864, 0.184730246663094 
1865, 0.181126892566681 
1866, 0.177345111966133 
1867, 0.173424735665321 
1868, 0.169340223073959 
1869, 0.165074095129967 
1870, 0.160692423582077 
1871, 0.156096145510674 
1872, 0.151471436023712 
1873, 0.146876379847527 
1874, 0.142315343022346 
1875, 0.137771248817444 
1876, 0.133287757635117 
1877, 0.128749668598175 
1878, 0.124213963747025 
1879, 0.119809284806252 
1880, 0.115569323301315 
1881, 0.111358046531677 
1882, 0.10674936324358 
1883, 0.102186776697636 
1884, 9.81979072093964E-02 
1885, 9.43084731698036E-02 
1886, 9.03182104229927E-02 
1887, 8.62571373581886E-02 
1888, 8.23578909039497E-02 
1889, 0.078647755086422 
1890, 7.49904811382294E-02 
1891, 7.16400742530823E-02 
1892, 6.82869926095009E-02 
1893, 6.52739256620407E-02 
1894, 6.22632838785648E-02 
1895, 5.96408098936081E-02 
1896, 5.70777095854282E-02 
1897, 5.47109805047512E-02 
1898, 5.24966008961201E-02 
1899, 0.050479881465435 
1900, 4.87227626144886E-02 
1901, 4.70024198293686E-02 
1902, 4.58218082785606E-02 
1903, 4.46253381669521E-02 
1904, 0.04330949857831 
1905, 4.20031324028969E-02 
1906, 4.09633256494999E-02 
1907, 4.00062091648579E-02 
1908, 0.039180263876915 
1909, 3.83977070450783E-02 
1910, 3.76494750380516E-02 
1911, 3.70926931500435E-02 
1912, 3.65718007087708E-02 
1913, 3.62115427851677E-02 
1914, 0.035854309797287 
1915, 3.55012640357018E-02 
1916, 3.51613573729992E-02 
1917, 3.50103490054607E-02 
1918, 3.49032953381538E-02 
1919, 3.46813090145588E-02 
1920, 3.43893393874168E-02 
1921, 3.41940335929394E-02 
1922, 3.42481173574924E-02 
1923, 3.42754982411861E-02 
1924, 3.42664383351803E-02 
1925, 3.42650823295116E-02 
1926, 3.42518053948879E-02 
1927, 3.42142544686794E-02 
1928, 3.42330783605576E-02 
1929, 3.42539735138416E-02 
1930, 3.43535877764225E-02 
1931, 3.45401912927628E-02 
1932, 3.46673540771008E-02 
1933, 0.0346714630723 
1934, 0.034711979329586 
1935, 3.48196923732758E-02 
1936, 3.49090285599232E-02 
1937, 3.49555239081383E-02 
1938, 3.50761041045189E-02 
1939, 3.53370569646358E-02 
1940, 3.55473347008228E-02 
1941, 3.57273817062378E-02 
1942, 3.58526520431042E-02 
1943, 3.59730832278728E-02 
1944, 3.63455004990101E-02 
1945, 3.67280319333076E-02 
1946, 3.71127873659134E-02 
1947, 3.74837666749954E-02 
1948, 3.78041714429855E-02 
1949, 0.03813311830163 
1950, 3.84723469614983E-02 
1951, 3.87652553617954E-02 
1952, 3.90904247760773E-02 
1953, 3.94152402877808E-02 
1954, 3.97265702486038E-02 
1955, 4.00611907243729E-02 
1956, 4.03979979455471E-02 
1957, 0.04081666842103 
1958, 0.041254423558712 
1959, 4.17133122682571E-02 
1960, 4.21720668673515E-02 
1961, 4.25283834338188E-02 
1962, 4.28233854472637E-02 
1963, 4.32669296860695E-02 
1964, 4.38068062067032E-02 
1965, 4.42723259329796E-02 
1966, 4.45977412164211E-02 
1967, 4.49857525527477E-02 
1968, 4.56588640809059E-02 
1969, 4.63441200554371E-02 
1970, 0.046967338770628 
1971, 4.75901886820793E-02 
1972, 4.80239503085613E-02 
1973, 4.83360029757023E-02 
1974, 4.87204790115356E-02 
1975, 4.91492114961147E-02 
1976, 4.96760569512844E-02 
1977, 5.03231547772884E-02 
1978, 5.08705303072929E-02 
1979, 5.14139533042908E-02 
1980, 5.20070679485798E-02 
1981, 5.25287985801697E-02 
1982, 5.29977977275848E-02 
1983, 5.36130145192146E-02 
1984, 5.43293505907059E-02 
1985, 5.49343973398209E-02 
1986, 5.55151849985123E-02 
1987, 5.60933761298656E-02 
1988, 0.056554090231657 
1989, 5.71022182703018E-02 
1990, 5.77577389776707E-02 
1991, 5.84367476403713E-02 
1992, 5.91912977397442E-02 
1993, 5.98841421306133E-02 
1994, 0.06037737429142 
1995, 6.08868561685085E-02 
1996, 6.15023039281368E-02 
1997, 0.062099676579237 
1998, 6.26543015241623E-02 
1999, 6.31561875343323E-02 
2000, 6.36904239654541E-02 
2001, 6.43575266003609E-02 
2002, 6.51297718286514E-02 
2003, 6.59972578287125E-02 
2004, 6.68167024850845E-02 
2005, 6.75193965435028E-02 
2006, 6.81942105293274E-02 
2007, 6.88634663820267E-02 
2008, 6.95462599396706E-02 
2009, 7.00226277112961E-02 
2010, 0.070333905518055 
2011, 7.07519575953484E-02 
2012, 7.12673962116241E-02 
2013, 7.18116536736488E-02 
2014, 7.25833550095558E-02 
2015, 7.33548328280449E-02 
2016, 0.073958694934845 
2017, 7.44748190045357E-02 
2018, 7.48935863375664E-02 
2019, 7.53497555851936E-02 
2020, 7.59853795170784E-02 
2021, 7.66455456614494E-02 
2022, 7.72945061326027E-02 
2023, 7.80199766159058E-02 
2024, 7.86217525601387E-02 
2025, 7.91372060775757E-02 
2026, 7.96750411391258E-02 
2027, 0.080329991877079 
2028, 8.10150131583214E-02 
2029, 8.16190242767334E-02 
2030, 8.21994990110397E-02 
2031, 8.27591344714165E-02 
2032, 8.33356454968452E-02 
2033, 8.39977860450745E-02 
2034, 0.084637463092804 
2035, 8.50681513547897E-02 
2036, 8.54756608605385E-02 
2037, 8.59356969594955E-02 
2038, 0.086484394967556 
2039, 8.70808213949203E-02 
2040, 8.76245424151421E-02 
2041, 0.088097557425499 
2042, 8.85050147771835E-02 
2043, 8.89178588986397E-02 
2044, 8.94039422273636E-02 
2045, 8.99963900446892E-02 
2046, 0.090682327747345 
2047, 9.12949293851852E-02 
2048, 9.18156281113625E-02 
2049, 9.23523604869843E-02 
2050, 0.09274972230196 
2051, 9.32097509503365E-02 
2052, 0.09377770870924 
2053, 9.44132655858994E-02 
2054, 9.50524508953094E-02 
2055, 9.53933075070381E-02 
2056, 9.56332460045815E-02 
2057, 9.60673689842224E-02 
2058, 9.66200456023216E-02 
2059, 9.72056612372398E-02 
2060, 9.78379175066948E-02 
2061, 9.84636172652245E-02 
2062, 9.89883095026016E-02 
2063, 9.94937270879745E-02 
2064, 0.100087396800518 
2065, 0.100642532110214 
2066, 0.101128995418549 
2067, 0.101653508841991 
2068, 0.101988472044468 
2069, 0.102299615740776 
2070, 0.102793894708157 
2071, 0.10337670147419 
2072, 0.103965997695923 
2073, 0.104471124708652 
2074, 0.104782916605473 
2075, 0.105061307549477 
2076, 0.105576194822788 
2077, 0.106180593371391 
2078, 0.106826111674309 
2079, 0.107643999159336 
2080, 0.108246944844723 
2081, 0.108700878918171 
2082, 0.109224446117878 
2083, 0.109512284398079 
2084, 0.109762705862522 
2085, 0.110302977263927 
2086, 0.110924676060677 
2087, 0.111474893987179 
2088, 0.112021818757057 
2089, 0.112530864775181 
2090, 0.112943030893803 
2091, 0.113371253013611 
2092, 0.113778486847878 
2093, 0.114111267030239 
2094, 0.114374212920666 
2095, 0.114643670618534 
2096, 0.11499710381031 
2097, 0.115568988025188 
2098, 0.11633338779211 
2099, 0.116986110806465 
2100, 0.117402002215385 
2101, 0.117797195911407 
2102, 0.118367172777653 
2103, 0.119018822908401 
2104, 0.119523115456104 
2105, 0.119810111820698 
2106, 0.120033003389835 
2107, 0.120384596288204 
2108, 0.120812721550465 
2109, 0.121427118778229 
2110, 0.12219101190567 
2111, 0.122836448252201 
2112, 0.123441055417061 
2113, 0.124031029641628 
2114, 0.124575659632683 
2115, 0.125100716948509 
2116, 0.125656947493553 
2117, 0.126189172267914 
2118, 0.126661196351051 
2119, 0.127070859074593 
2120, 0.127455845475197 
2121, 0.127899214625359 
2122, 0.128399029374123 
2123, 0.128932550549507 
2124, 0.129540279507637 
2125, 0.130088523030281 
2126, 0.130530685186386 
2127, 0.130862161517143 
2128, 0.131163761019707 
2129, 0.131435036659241 
2130, 0.131851613521576 
2131, 0.132473886013031 
2132, 0.132957354187965 
2133, 0.133269459009171 
2134, 0.133605912327766 
2135, 0.134020000696182 
2136, 0.134492620825768 
2137, 0.134966388344765 
2138, 0.13531981408596 
2139, 0.135618880391121 
2140, 0.135999828577042 
2141, 0.13631384074688 
2142, 0.136566564440727 
2143, 0.136744737625122 
2144, 0.136930853128433 
2145, 0.137370824813843 
2146, 0.137830331921577 
2147, 0.138373389840126 
2148, 0.138805389404297 
2149, 0.138926789164543 
2150, 0.138974353671074 
2151, 0.139153659343719 
2152, 0.139470219612122 
2153, 0.139796078205109 
2154, 0.140114694833755 
2155, 0.140474572777748 
2156, 0.140779256820679 
2157, 0.141007408499718 
2158, 0.141414165496826 
2159, 0.141859829425812 
2160, 0.142173439264297 
2161, 0.142425239086151 
2162, 0.142576053738594 
2163, 0.142784476280212 
2164, 0.142970934510231 
2165, 0.143095582723618 
2166, 0.143348813056946 
2167, 0.143571004271507 
2168, 0.143702238798141 
2169, 0.143913388252258 
2170, 0.144188597798347 
2171, 0.144547820091248 
2172, 0.145041897892952 
2173, 0.145581588149071 
2174, 0.145957872271538 
2175, 0.146157011389732 
2176, 0.146417737007141 
2177, 0.146631523966789 
2178, 0.146721407771111 
2179, 0.147067025303841 
2180, 0.147439420223236 
2181, 0.147629365324974 
2182, 0.147765904664993 
2183, 0.147774562239647 
2184, 0.147878617048264 
2185, 0.148036688566208 
2186, 0.148054540157318 
2187, 0.148030057549477 
2188, 0.148031324148178 
2189, 0.148142859339714 
2190, 0.148382604122162 
2191, 0.14866179227829 
2192, 0.148806169629097 
2193, 0.148703575134277 
2194, 0.148428663611412 
2195, 0.148183599114418 
2196, 0.147715672850609 
2197, 0.147035509347916 
2198, 0.146022528409958 
2199, 0.144953042268753 
2200, 0.144006311893463 
2201, 0.143016189336777 
2202, 0.142393559217453 
2203, 0.141984507441521 
2204, 0.141754016280174 
2205, 0.141842246055603 
2206, 0.142131164669991 
2207, 0.142662763595581 
2208, 0.143336459994316 
2209, 0.144260078668594 
2210, 0.145229786634445 
2211, 0.146370023488998 
2212, 0.147658720612526 
2213, 0.14877761900425 
2214, 0.149752125144005 
2215, 0.150502055883408 
2216, 0.151142179965973 
2217, 0.151585072278976 
2218, 0.151812136173248 
2219, 0.151887610554695 
2220, 0.151975691318512 
2221, 0.151968136429787 
2222, 0.151893690228462 
2223, 0.151852995157242 
2224, 0.151425540447235 
2225, 0.151183515787125 
2226, 0.15118233859539 
2227, 0.15108397603035 
2228, 0.150993928313255 
2229, 0.150753691792488 
2230, 0.150295734405518 
2231, 0.149830192327499 
2232, 0.149615287780762 
2233, 0.149538859724998 
2234, 0.149399563670158 
2235, 0.149216622114182 
2236, 0.148973882198334 
2237, 0.14872333407402 
2238, 0.148648723959923 
2239, 0.148554965853691 
2240, 0.14813868701458 
2241, 0.147613078355789 
2242, 0.146767720580101 
2243, 0.145668059587479 
2244, 0.144970804452896 
2245, 0.144611775875092 
2246, 0.144465133547783 
2247, 0.144205540418625 
2248, 0.143655732274055 
2249, 0.143491983413696 
2250, 0.143405899405479 
2251, 0.142967939376831 
2252, 0.142497107386589 
2253, 0.141825467348099 
2254, 0.141378834843636 
2255, 0.141281843185425 
2256, 0.141140729188919 
2257, 0.14092493057251 
2258, 0.140479877591133 
2259, 0.139624714851379 
2260, 0.138752833008766 
2261, 0.138086542487144 
2262, 0.137511536478996 
2263, 0.136907309293747 
2264, 0.136291295289993 
2265, 0.135969087481499 
2266, 0.135780692100525 
2267, 0.135135382413864 
2268, 0.134271830320358 
2269, 0.133632719516754 
2270, 0.133052065968513 
2271, 0.132456824183464 
2272, 0.132150143384933 
2273, 0.132078528404236 
2274, 0.131979689002037 
2275, 0.13160465657711 
2276, 0.130812510848045 
2277, 0.129952266812325 
2278, 0.129165232181549 
2279, 0.128625527024269 
2280, 0.128012925386429 
2281, 0.127257272601128 
2282, 0.126839309930801 
2283, 0.126641184091568 
2284, 0.12633940577507 
2285, 0.125879243016243 
2286, 0.125377923250198 
2287, 0.124773561954498 
2288, 0.124097056686878 
2289, 0.12361466884613 
2290, 0.123327769339085 
2291, 0.123063929378986 
2292, 0.122744925320148 
2293, 0.122253969311714 
2294, 0.121576182544231 
2295, 0.120930954813957 
2296, 0.120511196553707 
2297, 0.120258681476116 
2298, 0.119814142584801 
2299, 0.119093216955662 
2300, 0.118565365672112 
2301, 0.118226826190948 
2302, 0.117623470723629 
2303, 0.116953790187836 
2304, 0.116332709789276 
2305, 0.116304017603397 
2306, 0.116468511521816 
2307, 0.115789249539375 
2308, 0.115207619965076 
2309, 0.114878721535206 
2310, 0.114571779966354 
2311, 0.114278353750706 
2312, 0.114229552447796 
2313, 0.1143818795681 
2314, 0.114191211760044 
2315, 0.113539569079876 
2316, 0.112986356019974 
2317, 0.112782791256905 
2318, 0.112245492637157 
2319, 0.111604355275631 
2320, 0.111115731298923 
2321, 0.11049997061491 
2322, 0.110125176608562 
2323, 0.110091000795364 
2324, 0.109847784042358 
2325, 0.109321713447571 
2326, 0.108919583261013 
2327, 0.108691111207008 
2328, 0.108140751719475 
2329, 0.107082471251488 
2330, 0.10594329982996 
2331, 0.104997582733631 
2332, 0.104222066700459 
2333, 0.103296220302582 
2334, 0.102196522057056 
2335, 0.101316101849079 
2336, 0.100558049976826 
2337, 9.96947586536407E-02 
2338, 9.87616032361984E-02 
2339, 0.09791199862957 
2340, 9.75764468312263E-02 
2341, 9.74759608507156E-02 
2342, 9.73457470536232E-02 
2343, 9.74715501070023E-02 
2344, 9.73605439066887E-02 
2345, 9.73326787352562E-02 
2346, 0.097374901175499 
2347, 9.68370735645294E-02 
2348, 9.64323356747627E-02 
2349, 9.63558629155159E-02 
2350, 9.64517965912819E-02 
2351, 0.096256248652935 
2352, 9.56050381064415E-02 
2353, 9.51208174228668E-02 
2354, 9.49976444244385E-02 
2355, 9.53690260648727E-02 
2356, 9.62973237037659E-02 
2357, 0.09661565721035 
2358, 9.59007143974304E-02 
2359, 9.52770262956619E-02 
2360, 9.49377119541168E-02 
2361, 9.43152010440826E-02 
2362, 9.37966480851173E-02 
2363, 9.36942249536514E-02 
2364, 9.33675020933151E-02 
2365, 9.26033928990364E-02 
2366, 9.22586843371391E-02 
2367, 9.25703793764114E-02 
2368, 9.25845950841904E-02 
2369, 0.091978557407856 
2370, 9.11315605044365E-02 
2371, 9.03599113225937E-02 
2372, 8.94545242190361E-02 
2373, 8.84055197238922E-02 
2374, 8.75857621431351E-02 
2375, 8.68752971291542E-02 
2376, 8.67535993456841E-02 
2377, 8.69779959321022E-02 
2378, 0.08664470911026 
2379, 8.63423570990562E-02 
2380, 8.61630737781525E-02 
2381, 8.56690257787704E-02 
2382, 8.48332419991493E-02 
2383, 0.08396165817976 
2384, 8.37227627635002E-02 
2385, 8.40019285678864E-02 
2386, 8.41058492660522E-02 
2387, 8.39870348572731E-02 
2388, 8.35181698203087E-02 
2389, 8.24963375926018E-02 
2390, 8.21141302585602E-02 
2391, 0.082941547036171 
2392, 8.33547562360764E-02 
2393, 8.26159045100212E-02 
2394, 8.17464217543602E-02 
2395, 8.10973197221756E-02 
2396, 0.080168716609478 
2397, 7.90679603815079E-02 
2398, 7.84256756305695E-02 
2399, 7.74994716048241E-02 
2400, 7.60060921311378E-02 
2401, 7.47475922107697E-02 
2402, 7.38942325115204E-02 
2403, 7.35190734267235E-02 
2404, 0.073359414935112 
2405, 0.073562428355217 
2406, 7.40670040249825E-02 
2407, 7.47356712818146E-02 
2408, 7.51881450414658E-02 
2409, 7.53902271389961E-02 
2410, 7.55238384008408E-02 
2411, 7.42455944418907E-02 
2412, 7.19098970293999E-02 
2413, 7.01175928115845E-02 
2414, 6.90239518880844E-02 
2415, 6.87231495976448E-02 
2416, 6.88245967030525E-02 
2417, 6.87389895319939E-02 
2418, 6.83170855045319E-02 
2419, 6.75247237086296E-02 
2420, 6.70716241002083E-02 
2421, 0.066656619310379 
2422, 6.62451386451721E-02 
2423, 0.066452294588089 
2424, 6.59655630588531E-02 
2425, 6.48288428783417E-02 
2426, 6.38976022601128E-02 
2427, 6.37189596891403E-02 
2428, 6.39850571751595E-02 
2429, 6.40378445386887E-02 
2430, 6.41178712248802E-02 
2431, 0.06313706189394 
2432, 6.15884214639664E-02 
2433, 0.060599897056818 
2434, 0.059975229203701 
2435, 5.97222782671452E-02 
2436, 5.95265291631222E-02 
2437, 5.98706528544426E-02 
2438, 0.05970623716712 
2439, 5.87087832391262E-02 
2440, 5.83963878452778E-02 
2441, 5.68837746977806E-02 
2442, 5.50494901835918E-02 
2443, 5.46013042330742E-02 
2444, 5.46756535768509E-02 
2445, 5.56255802512169E-02 
2446, 5.57534545660019E-02 
2447, 5.53195364773273E-02 
2448, 0.055121622979641 
2449, 5.57917878031731E-02 
2450, 5.66665604710579E-02 
2451, 5.68586960434914E-02 
2452, 5.71889095008373E-02 
2453, 5.59582933783531E-02 
2454, 5.43320663273335E-02 
2455, 5.24745509028435E-02 
2456, 5.06928488612175E-02 
2457, 5.25741130113602E-02 
2458, 5.48012405633926E-02 
2459, 5.42087815701962E-02 
2460, 5.32875582575798E-02 
2461, 5.37337101995945E-02 
2462, 5.47864064574242E-02 
2463, 5.34726269543171E-02 
2464, 0.051094077527523 
2465, 4.88101989030838E-02 
2466, 4.62804287672043E-02 
2467, 4.51903343200684E-02 
2468, 4.50939424335957E-02 
2469, 4.41622994840145E-02 
2470, 4.27816025912762E-02 
2471, 4.25732247531414E-02 
2472, 4.24152389168739E-02 
2473, 4.19798083603382E-02 
2474, 4.11216467618942E-02 
2475, 0.042179811745882 
2476, 4.38137985765934E-02 
2477, 0.043817475438118 
2478, 4.40648645162582E-02 
2479, 4.54906485974789E-02 
2480, 0.046600628644228 
2481, 4.38066758215427E-02 
2482, 4.11300212144852E-02 
2483, 4.15260456502438E-02 
2484, 4.18755784630775E-02 
2485, 4.23821061849594E-02 
2486, 4.29375730454922E-02 
2487, 4.24981042742729E-02 
2488, 4.17609699070454E-02 
2489, 4.21479344367981E-02 
2490, 4.25080470740795E-02 
2491, 4.32958155870438E-02 
2492, 4.44019287824631E-02 
2493, 4.14855927228928E-02 
2494, 3.81995439529419E-02 
2495, 3.63894253969193E-02 
2496, 3.48876565694809E-02 
2497, 3.58864180743694E-02 
2498, 3.73838879168034E-02 
2499, 4.05801013112068E-02 
2500, 4.32665422558784E-02 
