400 , 0.0
405 , 0.0
410 , 0.0
415 , 0.0
420 , 0.0
425 , 0.0
430 , 0.0
435 , 0.0
440 , 0.0
445 , 0.0
450 , 0.0
455 , 0.0
460 , 0.0
465 , 0.0
470 , 0.0
475 , 0.0
480 , 0.0
485 , 0.0
490 , 0.0
495 , 0.0
500 , 0.0
505 , 0.0
510 , 0.0
515 , 0.0
520 , 0.0
525 , 0.0
530 , 0.0
535 , 0.0
540 , 0.0
545 , 0.0
550 , 0.0
555 , 0.0
560 , 0.0
565 , 0.0
570 , 0.0
575 , 0.0
580 , 0.0
585 , 0.0
590 , 0.0
595 , 0.0
600 , 0.0
605 , 0.0
610 , 0.0
615 , 0.0
620 , 0.0
625 , 0.0
630 , 0.0
635 , 0.0
640 , 0.0
645 , 0.0
650 , 0.0
655 , 0.0
660 , 0.0
665 , 0.0
670 , 0.0
675 , 0.0
680 , 0.0
685 , 0.0
690 , 0.0
695 , 0.0
700 , 0.0
705 , 0.0
710 , 0.0
715 , 0.0
720 , 0.0
725 , 0.0
730 , 0.0
735 , 0.0
740 , 0.0
745 , 0.0
750 , 0.0
755 , 0.0
760 , 0.0
765 , 0.0
770 , 0.0
775 , 0.0
780 , 0.0
785 , 0.0
790 , 0.0
795 , 0.0
800 , 0.0
805 , 0.0
810 , 0.0
815 , 0.0
820 , 0.0
825 , 0.0
830 , 0.0
835 , 0.0
840 , 0.0
845 , 0.0
850 , 0.0
855 , 0.0
860 , 0.0
865 , 0.0
870 , 0.0
875 , 0.0
880 , 0.0
885 , 0.0
890 , 0.0
895 , 0.0
900 , 0.0
905 , 0.0
910 , 0.0
915 , 0.0
920 , 0.0
925 , 0.0
930 , 0.0
935 , 0.0
940 , 0.0
945 , 0.0
950 , 0.04
955 , 0.13
960 , 0.21
965 , 0.26
970 , 0.29
975 , 0.31
980 , 0.31
985 , 0.32
990 , 0.32
995 , 0.32
1000 , 0.3
1005 , 0.29
1010 , 0.29
1015 , 0.28
1020 , 0.26
1025 , 0.25
1030 , 0.24
1035 , 0.23
1040 , 0.22
1045 , 0.22
1050 , 0.22
1055 , 0.21
1060 , 0.22
1065 , 0.22
1070 , 0.23
1075 , 0.24
1080 , 0.25
1085 , 0.27
1090 , 0.29
1095 , 0.31
1100 , 0.33
1105 , 0.35
1110 , 0.36
1115 , 0.39
1120 , 0.41
1125 , 0.45
1130 , 0.52
1135 , 0.63
1140 , 0.82
1145 , 1.01
1150 , 1.2
1155 , 1.35
1160 , 1.4
1165 , 1.46
1170 , 1.48
1175 , 1.48
1180 , 1.49
1185 , 1.54
1190 , 1.55
1195 , 1.53
1200 , 1.53
1205 , 1.54
1210 , 1.51
1215 , 1.51
1220 , 1.5
1225 , 1.49
1230 , 1.46
1235 , 1.46
1240 , 1.44
1245 , 1.42
1250 , 1.4
1255 , 1.4
1260 , 1.38
1265 , 1.38
1270 , 1.4
1275 , 1.42
1280 , 1.44
1285 , 1.48
1290 , 1.51
1295 , 1.62
1300 , 1.7
1305 , 1.8
1310 , 1.93
1315 , 2.1
1320 , 2.27
1325 , 2.49
1330 , 2.72
1335 , 2.96
1340 , 3.25
1345 , 3.46
1350 , 3.69
1355 , 3.91
1360 , 4.12
1365 , 4.39
1370 , 4.82
1375 , 5.5
1380 , 6.55
1385 , 8.19
1390 , 10.51
1395 , 13.44
1400 , 16.73
1405 , 19.83
1410 , 22.82
1415 , 25.08
1420 , 27.04
1425 , 28.88
1430 , 29.79
1435 , 30.67
1440 , 31.5
1445 , 32.29
1450 , 31.53
1455 , 31.74
1460 , 31.94
1465 , 31.1
1470 , 29.66
1475 , 28.47
1480 , 26.91
1485 , 25.8
1490 , 24.56
1495 , 23.22
1500 , 21.86
1505 , 20.61
1510 , 19.43
1515 , 18.33
1520 , 17.42
1525 , 16.45
1530 , 15.48
1535 , 14.77
1540 , 14.01
1545 , 13.36
1550 , 12.73
1555 , 12.1
1560 , 11.59
1565 , 11.07
1570 , 10.62
1575 , 10.27
1580 , 9.85
1585 , 9.52
1590 , 9.24
1595 , 8.97
1600 , 8.73
1605 , 8.51
1610 , 8.33
1615 , 8.13
1620 , 7.97
1625 , 7.81
1630 , 7.67
1635 , 7.58
1640 , 7.43
1645 , 7.3
1650 , 7.25
1655 , 7.17
1660 , 7.06
1665 , 7.03
1670 , 6.99
1675 , 6.89
1680 , 6.86
1685 , 6.86
1690 , 6.86
1695 , 6.86
1700 , 6.91
1705 , 6.96
1710 , 7.02
1715 , 7.11
1720 , 7.23
1725 , 7.35
1730 , 7.58
1735 , 7.79
1740 , 8.05
1745 , 8.35
1750 , 8.64
1755 , 8.95
1760 , 9.3
1765 , 9.64
1770 , 9.91
1775 , 10.12
1780 , 10.33
1785 , 10.46
1790 , 10.52
1795 , 10.52
1800 , 10.54
1805 , 10.46
1810 , 10.48
1815 , 10.47
1820 , 10.49
1825 , 10.58
1830 , 10.68
1835 , 10.9
1840 , 11.22
1845 , 11.76
1850 , 12.55
1855 , 13.77
1860 , 15.38
1865 , 17.77
1870 , 21.65
1875 , 27.62
1880 , 35.62
1885 , 48.57
1890 , 63.38
1895 , 75.97
1900 , 93.18
1905 , 111.14
1910 , 126.52
1915 , 137.91
1920 , 141.84
1925 , 144.36
1930 , 146.34
1935 , 145.63
1940 , 140.25
1945 , 141.92
1950 , 136.15
1955 , 133.57
1960 , 127.09
1965 , 124.46
1970 , 117.76
1975 , 107.19
1980 , 100.35
1985 , 94.88
1990 , 89.0
1995 , 84.8
2000 , 80.47
2005 , 76.88
2010 , 72.7
2015 , 70.11
2020 , 67.04
2025 , 64.57
2030 , 61.28
2035 , 59.22
2040 , 57.18
2045 , 54.98
2050 , 52.7
2055 , 50.98
2060 , 49.26
2065 , 45.6
2070 , 42.01
2075 , 39.81
2080 , 38.16
2085 , 36.91
2090 , 34.99
2095 , 33.49
2100 , 32.38
2105 , 30.93
2110 , 29.77
2115 , 28.77
2120 , 27.61
2125 , 26.92
2130 , 26.15
2135 , 25.21
2140 , 24.65
2145 , 24.22
2150 , 23.61
2155 , 23.07
2160 , 22.73
2165 , 22.41
2170 , 22.18
2175 , 22.02
2180 , 21.72
2185 , 21.52
2190 , 21.32
2195 , 21.14
2200 , 21.03
2205 , 21.04
2210 , 20.84
2215 , 20.91
2220 , 20.6
2225 , 20.77
2230 , 20.75
2235 , 20.86
2240 , 21.01
2245 , 21.34
2250 , 21.48
2255 , 21.74
2260 , 21.92
2265 , 22.33
2270 , 22.63
2275 , 23.15
2280 , 23.68
2285 , 24.3
2290 , 25.0
2295 , 25.24
2300 , 25.8
2305 , 26.86
2310 , 27.71
2315 , 28.32
2320 , 29.54
2325 , 30.92
2330 , 31.62
2335 , 32.89
2340 , 34.42
2345 , 35.09
2350 , 36.68
2355 , 38.11
2360 , 40.61
2365 , 40.78
2370 , 42.01
2375 , 44.63
2380 , 49.97
2385 , 51.77
2390 , 52.58
2395 , 54.47
2400 , 54.64
2405 , 57.98
2410 , 59.19
2415 , 59.73
2420 , 61.44
2425 , 65.33
2430 , 65.18
2435 , 67.51
2440 , 68.93
2445 , 72.13
2450 , 77.75
2455 , 77.92
2460 , 79.96
2465 , 84.7
2470 , 88.73
2475 , 91.42
2480 , 80.31
2485 , 91.62
2490 , 108.09
2495 , 111.56
2500 , 99.3

