/* 
/////////////////////////////////////////////////////////////////////////
//
// optimization
//
// Carlos Rueda - CSTARS
// June 2001
//
///////////////////////////////////////////////////////////////////////// 
*/

/////////////////////////////////////////////////////////////////////////
//		private declarations


#ifndef __OPT_I
#define __OPT_I

#ifndef __OPT_H
#include "opt.h"
#endif

#include <stdio.h>
#include <string.h>
#include <malloc.h>
#include <assert.h>



/////////////////////////////////////////////////////////////////////////
int OPT_binary(OPT_Object opt_, OPT_RValue* best_input_, double *best_output_);


/////////////////////////////////////////////////////////////////////////
int OPT_exhaustive(OPT_Object opt_, OPT_RValue* best_input_, double *best_output_);


/////////////////////////////////////////////////////////////////////////
int OPT_golden(OPT_Object opt_, OPT_RValue* best_input_, double *best_output_);



#endif	/* ifndef __OPT_I */
